A first tutorial for `gscramble` • gscramble
…
First, here is a listing of the top of the Segments we
produced above.

Segments
#> # A tibble: 286 × 14
#>    chrom_f   gpp   rep chrom ped_sample_id samp_index gamete_index
#>    <fct>   <int> <int> <chr> <chr>              <int>        <dbl>
#>  1 12          1     1 12    10                     1            1
#>  2 12          1     1 12    10                     1            1
#>  3 17          1     1 17    10                     1            1
#>  4 17          1     1 17    10                     1            1
#>  5 18          1     1 18    10                     1            1
#>  6 18          1     1 18    10                     1            1
#>  7 18          1     1 18    10                     1            1
#>  8 18          1     1 18    10                     1            1
#>  9 12          1     1 12    10                     1            2
#> 10 12          1     1 12    10                     1            2
#> # … with 276 more rows, and 7 more variables: gamete_segments <list>,
#> #   pop_origin <chr>, rs_founder_haplo <int>, start <dbl>, end <dbl>,
#> #   group_origin <chr>, sim_level_founder_haplo <int>

The table is a little wide, so we will show the first half of the
columns and then the second half here.

First half

Segments %>%
  select(gpp:pop_origin)
#> # A tibble: 286 × 8
#>      gpp   rep chrom ped_sample_id samp_index gamete_index gamete_segments
#>    <int> <int> <chr> <chr>              <int>        <dbl> <list>         
#>  1     1     1 12    10                     1            1 <dbl [3]>      
#>  2     1     1 12    10                     1            1 <dbl [3]>      
#>  3     1     1 17    10                     1            1 <dbl [3]>      
#>  4     1     1 17    10                     1            1 <dbl [3]>      
#>  5     1     1 18    10                     1            1 <dbl [5]>      
#>  6     1     1 18    10                     1            1 <dbl [5]>      
#>  7     1     1 18    10                     1            1 <dbl [5]>      
#>  8     1     1 18    10                     1            1 <dbl [5]>      
#>  9     1     1 12    10                     1            2 <dbl [5]>      
#> 10     1     1 12    10                     1            2 <dbl [5]>      
#> # … with 276 more rows, and 1 more variable: pop_origin <chr>

Second half

Segments %>%
  select(rs_founder_haplo:group_origin)
#> # A tibble: 286 × 4
#>    rs_founder_haplo     start       end group_origin
#>               <int>     <dbl>     <dbl> <chr>       
#>  1                3        0   4888302. Pop2        
#>  2                2  4888302. 63582536  Pop3        
#>  3                2        0  64743108. Pop3        
#>  4                4 64743108. 69302804  Pop2        
#>  5                4        0   4583912. Pop2        
#>  6                2  4583912.  9900731. Pop3        
#>  7                4  9900731. 56967240. Pop2        
#>  8                2 56967240. 61201108  Pop3        
#>  9                6        0   9808646. Pop2        
#> 10                4  9808646. 50453258. Pop3        
#> # … with 276 more rows
…
