Segregate segments down genomic simulation pedigrees — segregate • gscramble
…
# combine those into a request
request <- tibble::tibble(
   gpp = list(gsp_f1f1b),
   reppop = list(reppop)
)

result1 <- segregate(request, RecRates)

# here we pass it some markers, too
result2 <- segregate(request, RecRates, M_meta)

result1
#> # A tibble: 52 × 14
#>    chrom_f   gpp index chrom ped_sample_id samp_index gamete_index
#>    <fct>   <int> <int> <chr> <chr>              <int>        <dbl>
#>  1 12          1     1 12    4                      1            1
#>  2 17          1     1 17    4                      1            1
#>  3 18          1     1 18    4                      1            1
#>  4 12          1     1 12    4                      1            2
#>  5 17          1     1 17    4                      1            2
#>  6 18          1     1 18    4                      1            2
#>  7 12          1     1 12    5                      1            1
#>  8 17          1     1 17    5                      1            1
#>  9 18          1     1 18    5                      1            1
#> 10 12          1     1 12    5                      1            2
#> # … with 42 more rows, and 7 more variables: gamete_segments <list>,
#> #   pop_origin <chr>, rs_founder_haplo <int>, start <dbl>, end <dbl>,
#> #   group_origin <chr>, sim_level_founder_haplo <int>

result2
#> # A tibble: 48 × 14
#>    chrom_f   gpp index chrom ped_sample_id samp_index gamete_index
#>    <fct>   <int> <int> <chr> <chr>              <int>        <dbl>
#>  1 12          1     1 12    4                      1            1
#>  2 17          1     1 17    4                      1            1
#>  3 18          1     1 18    4                      1            1
#>  4 12          1     1 12    4                      1            2
#>  5 17          1     1 17    4                      1            2
#>  6 18          1     1 18    4                      1            2
#>  7 12          1     1 12    5                      1            1
#>  8 17          1     1 17    5                      1            1
#>  9 18          1     1 18    5                      1            1
#> 10 12          1     1 12    5                      1            2
#> # … with 38 more rows, and 7 more variables: gamete_segments <list>,
#> #   pop_origin <chr>, rs_founder_haplo <int>, start <dbl>, end <dbl>,
#> #   group_origin <chr>, sim_level_founder_haplo <int>
…
