computes the simulation-level founder haplotype index for each founder haplo — sim_level_founder_haplos • gscramble
…
# combine those into a request
request <- tibble::tibble(
  gpp = list(gsp_f1f1b),
  reppop = list(reppop)
)

# now run it through segregate()
set.seed(5)  # just for reproducibility in example...
simSegs <- segregate(request, RecRates)

#### Now we can run those through sim_level_founder_haplos() ####
fh <- sim_level_founder_haplos(simSegs)
fh
#> # A tibble: 52 × 14
#>      gpp   rep chrom ped_sample_id samp_index gamete_index gamete_segments
#>    <int> <dbl> <chr> <chr>              <int>        <dbl> <list>         
#>  1     1     1 12    4                      1            1 <dbl [2]>      
#>  2     1     1 17    4                      1            1 <dbl [2]>      
#>  3     1     1 18    4                      1            1 <dbl [2]>      
#>  4     1     1 12    4                      1            2 <dbl [2]>      
#>  5     1     1 17    4                      1            2 <dbl [2]>      
#>  6     1     1 18    4                      1            2 <dbl [2]>      
#>  7     1     1 12    5                      1            1 <dbl [2]>      
#>  8     1     1 17    5                      1            1 <dbl [2]>      
#>  9     1     1 18    5                      1            1 <dbl [2]>      
#> 10     1     1 12    5                      1            2 <dbl [3]>      
#> # … with 42 more rows, and 7 more variables: pop_origin <chr>,
#> #   rs_founder_haplo <int>, start <dbl>, end <dbl>, group_origin <chr>,
#> #   sim_level_founder_haplo.x <int>, sim_level_founder_haplo.y <int>
…
